module gitlab.com/spaceshiperr/cicd-demo-project

go 1.20

require (
	github.com/rs/zerolog v1.29.1
	github.com/stretchr/testify v1.8.4
)

require (
	github.com/davecgh/go-spew v1.1.1 // indirect
	github.com/mattn/go-colorable v0.1.12 // indirect
	github.com/mattn/go-isatty v0.0.14 // indirect
	github.com/pmezard/go-difflib v1.0.0 // indirect
	golang.org/x/sys v0.0.0-20220715151400-c0bba94af5f8 // indirect
	gopkg.in/yaml.v3 v3.0.1 // indirect
)
